{"session-name": "chilledsoco",
 "attach-session": true,
 "color-256": true,
 "cwd": "~/projects/chilledsoco",
 "windows": [
    {"name": "vi",
     "panes": [
        {"send-keys": ["ls -alh"]}
      ]
    },
    {"name": "server",
     "layout": "21a2,153x54,0,0{101x54,0,0,1,51x54,102,0,2}",
     "panes":[
        {"send-keys": [
            "cd ~/projects",
            "cd chilledsoco"
            ]},
        {"split": "|",
         "send-keys": [
            "cd ~/projects/drift"
            ]}
     ]
    }
 ]
}
