{"session-name": "session2",
 "attach-session": true,
 "colors": 256,
 "cwd": "~/projects/dhp-dev",
 "windows": [
        {"name": "vi",
         "panes": [
                {"send-keys": ["ls -alh"]}
          ]
        },
        {"name": "server",
         "layout": "LEFTright",
         "panes":[
                {"send-keys": [
                    "cd dhp-dev"
                    ]},
                {"split": "|",
                 "cwd": "~/projects/drift",
                 "send-keys": [
                    "ls -alh"
                    ]}
         ]
        }
    ]
}
